IODS course project
…
Load data

library(ggplot2)
library(GGally)
library(tidyr)
library(dplyr, warn.conflicts = F)
library(stringr)
source(paste(getwd(),"multiplot.R", sep="/"))

df <- read.table("http://s3.amazonaws.com/assets.datacamp.com/production/course_2218/datasets/alc.txt", sep=",", head = T) %>% tbl_df()

df

## # A tibble: 382 x 35
##    school    sex   age address famsize Pstatus  Medu  Fedu     Mjob
##    <fctr> <fctr> <int>  <fctr>  <fctr>  <fctr> <int> <int>   <fctr>
##  1     GP      F    18       U     GT3       A     4     4  at_home
##  2     GP      F    17       U     GT3       T     1     1  at_home
##  3     GP      F    15       U     LE3       T     1     1  at_home
##  4     GP      F    15       U     GT3       T     4     2   health
##  5     GP      F    16       U     GT3       T     3     3    other
##  6     GP      M    16       U     LE3       T     4     3 services
##  7     GP      M    16       U     LE3       T     2     2    other
##  8     GP      F    17       U     GT3       A     4     4    other
##  9     GP      M    15       U     LE3       A     3     2 services
## 10     GP      M    15       U     GT3       T     3     4    other
## # ... with 372 more rows, and 26 more variables: Fjob <fctr>,
## #   reason <fctr>, nursery <fctr>, internet <fctr>, guardian <fctr>,
## #   traveltime <int>, studytime <int>, failures <int>, schoolsup <fctr>,
## #   famsup <fctr>, paid <fctr>, activities <fctr>, higher <fctr>,
## #   romantic <fctr>, famrel <int>, freetime <int>, goout <int>,
## #   Dalc <int>, Walc <int>, health <int>, absences <int>, G1 <int>,
## #   G2 <int>, G3 <int>, alc_use <dbl>, high_use <lgl>
…
So, the data explores school performance of portuguese students. This set contains information of 382 students, their grades and several variables that might correlate with performance.

Hypothesis of high alcohol use predicting variables

I thought that good family relations and extra-curricular activities would protect from high alcohol usage. Number of absences and going more out with friends would, conversely, increase alcohol usage.

mod <- df %>% select(high_use, famrel, activities, absences, goout) 
mod

## # A tibble: 382 x 5
##    high_use famrel activities absences goout
##       <lgl>  <int>     <fctr>    <int> <int>
##  1    FALSE      4         no        6     4
##  2    FALSE      5         no        4     3
##  3     TRUE      4         no       10     2
##  4    FALSE      3        yes        2     2
##  5    FALSE      4         no        4     2
##  6    FALSE      5        yes       10     2
##  7    FALSE      4         no        0     4
##  8    FALSE      4         no        6     4
##  9    FALSE      4         no        0     2
## 10    FALSE      5        yes        0     1
## # ... with 372 more rows
…
